…
### Funding Organization

Identify the European Commission as funding organization using pattern
matching.

``` r
openaire_wos %>%
  as_tibble() %>%
  mutate(eu_funding = ifelse(grepl("^EU|^Eur|^ERC", FUNDINGORGANIZATION), "EU", NA)) %>% 
  filter(eu_funding == "EU") 
#> # A tibble: 1,128 x 4
#>    FUNDINGORGANIZATION              GRANTNUMBER      DOI         eu_funding
#>    <chr>                            <chr>            <chr>       <chr>     
#>  1 European ITN project (FP7-PEOPL… PITNGA-2011-289… 10.1007/JH… EU        
#>  2 European Union                   690575           10.1103/Ph… EU        
#>  3 EU                               PITN-GA-2011-28… 10.1103/Ph… EU        
#>  4 European Union                   674896           10.1103/Ph… EU        
#>  5 EU                               FP7 ITN INVISIB… 10.1103/Ph… EU        
#>  6 European Research Council under… 617143           10.1103/Ph… EU        
#>  7 European Union's Horizon resear… 690575           10.1088/14… EU        
#>  8 European Union's Horizon resear… 674896           10.1088/14… EU        
#>  9 European Union's Horizon resear… 674896           10.1007/JH… EU        
#> 10 European Union's Horizon resear… 690575           10.1007/JH… EU        
#> # … with 1,118 more rows
```
…
